// Jest Snapshot v1, https://goo.gl/fbAQLP

exports[`when main app page loads should match previous snapshot 1`] = `
<div>
  <div>
    <h1>
      user-exercises-ui
    </h1>
    <a
      className="nav_links"
      data-qa="home_link"
      href="/"
      onClick={[Function]}
    >
      Homepage
    </a>
    <a
      className="nav_links"
      data-qa="users_link"
      href="/users"
      onClick={[Function]}
    >
      Users
    </a>
  </div>
  <h2>
    Homepage
  </h2>
  <div>
    <label>
      Enter User ID to find user:
      <input
        className="userid"
        name="userid"
        onChange={[Function]}
        type="text"
      />
      <a
        className="disabled-link"
        href="/user/"
        id="userlink"
        onClick={[Function]}
      >
        Find User
      </a>
    </label>
  </div>
</div>
`;
