// Jest Snapshot v1, https://goo.gl/fbAQLP

exports[`when user form component renders should match previous snapshot 1`] = `
<div>
  <label>
    Enter User ID to find user:
    <input
      className="userid"
      name="userid"
      onChange={[Function]}
      type="text"
    />
    <a
      className="disabled-link"
      href="/user/"
      id="userlink"
      onClick={[Function]}
    >
      Find User
    </a>
  </label>
</div>
`;
